{
  "watch": "true",
  "watchFolders": [
    "d:/Users/ctachape/Documents/Mendix/MakroQuestionarie-Notification_Line/theme",
    "d:/Users/ctachape/Documents/Mendix/MakroQuestionarie-Notification_Line/javascriptsource",
    "D:/Program Files/Mendix/8.18.1.13528/modeler/tools/node/node_modules"
  ],
  "resolver": {
    "useWatchman": true,
    "platforms": [
      "ios",
      "android"
    ],
    "extraNodeModules": {
      "externalWidgets": "d:/Users/ctachape/Documents/Mendix/MakroQuestionarie-Notification_Line/deployment/native/externalWidgets",
      "@babel/runtime": "D:/Program Files/Mendix/8.18.1.13528/modeler/tools/node/node_modules/@babel/runtime",
      "big.js": "D:/Program Files/Mendix/8.18.1.13528/modeler/tools/node/node_modules/big.js",
      "react": "D:/Program Files/Mendix/8.18.1.13528/modeler/tools/node/node_modules/react",
      "react-native-gesture-handler": "D:/Program Files/Mendix/8.18.1.13528/modeler/tools/node/node_modules/react-native-gesture-handler",
      "react-native": "D:/Program Files/Mendix/8.18.1.13528/modeler/tools/node/node_modules/react-native",
      "react-native-ble-plx": "D:/Program Files/Mendix/8.18.1.13528/modeler/tools/node/node_modules/react-native-ble-plx",
      "react-native-calendar-events": "D:/Program Files/Mendix/8.18.1.13528/modeler/tools/node/node_modules/react-native-calendar-events",
      "react-native-camera": "D:/Program Files/Mendix/8.18.1.13528/modeler/tools/node/node_modules/react-native-camera",
      "react-native-code-push": "D:/Program Files/Mendix/8.18.1.13528/modeler/tools/node/node_modules/react-native-code-push",
      "react-native-device-info": "D:/Program Files/Mendix/8.18.1.13528/modeler/tools/node/node_modules/react-native-device-info",
      "react-native-firebase": "D:/Program Files/Mendix/8.18.1.13528/modeler/tools/node/node_modules/react-native-firebase",
      "react-native-geocoder": "D:/Program Files/Mendix/8.18.1.13528/modeler/tools/node/node_modules/react-native-geocoder",
      "react-native-image-picker": "D:/Program Files/Mendix/8.18.1.13528/modeler/tools/node/node_modules/react-native-image-picker",
      "react-native-inappbrowser-reborn": "D:/Program Files/Mendix/8.18.1.13528/modeler/tools/node/node_modules/react-native-inappbrowser-reborn",
      "react-native-maps": "D:/Program Files/Mendix/8.18.1.13528/modeler/tools/node/node_modules/react-native-maps",
      "react-native-material-menu": "D:/Program Files/Mendix/8.18.1.13528/modeler/tools/node/node_modules/react-native-material-menu",
      "react-navigation": "D:/Program Files/Mendix/8.18.1.13528/modeler/tools/node/node_modules/react-navigation",
      "react-navigation-drawer": "D:/Program Files/Mendix/8.18.1.13528/modeler/tools/node/node_modules/react-navigation-drawer",
      "react-navigation-stack": "D:/Program Files/Mendix/8.18.1.13528/modeler/tools/node/node_modules/react-navigation-stack",
      "react-navigation-tabs": "D:/Program Files/Mendix/8.18.1.13528/modeler/tools/node/node_modules/react-navigation-tabs",
      "react-native-sound": "D:/Program Files/Mendix/8.18.1.13528/modeler/tools/node/node_modules/react-native-sound",
      "react-native-svg": "D:/Program Files/Mendix/8.18.1.13528/modeler/tools/node/node_modules/react-native-svg",
      "react-native-tab-view": "D:/Program Files/Mendix/8.18.1.13528/modeler/tools/node/node_modules/react-native-tab-view",
      "react-native-touch-id": "D:/Program Files/Mendix/8.18.1.13528/modeler/tools/node/node_modules/react-native-touch-id",
      "react-native-vector-icons": "D:/Program Files/Mendix/8.18.1.13528/modeler/tools/node/node_modules/react-native-vector-icons",
      "react-native-video": "D:/Program Files/Mendix/8.18.1.13528/modeler/tools/node/node_modules/react-native-video",
      "react-native-view-shot": "D:/Program Files/Mendix/8.18.1.13528/modeler/tools/node/node_modules/react-native-view-shot",
      "react-native-webview": "D:/Program Files/Mendix/8.18.1.13528/modeler/tools/node/node_modules/react-native-webview",
      "react-native-fast-image": "D:/Program Files/Mendix/8.18.1.13528/modeler/tools/node/node_modules/react-native-fast-image",
      "react-native-screens": "D:/Program Files/Mendix/8.18.1.13528/modeler/tools/node/node_modules/react-native-screens",
      "react-native-localize": "D:/Program Files/Mendix/8.18.1.13528/modeler/tools/node/node_modules/react-native-localize",
      "react-native-reanimated": "D:/Program Files/Mendix/8.18.1.13528/modeler/tools/node/node_modules/react-native-reanimated",
      "react-native-safe-area-context": "D:/Program Files/Mendix/8.18.1.13528/modeler/tools/node/node_modules/react-native-safe-area-context",
      "@react-native-community/art": "D:/Program Files/Mendix/8.18.1.13528/modeler/tools/node/node_modules/@react-native-community/art",
      "@react-native-community/async-storage": "D:/Program Files/Mendix/8.18.1.13528/modeler/tools/node/node_modules/@react-native-community/async-storage",
      "@react-native-community/cameraroll": "D:/Program Files/Mendix/8.18.1.13528/modeler/tools/node/node_modules/@react-native-community/cameraroll",
      "@react-native-community/datetimepicker": "D:/Program Files/Mendix/8.18.1.13528/modeler/tools/node/node_modules/@react-native-community/datetimepicker",
      "@react-native-community/geolocation": "D:/Program Files/Mendix/8.18.1.13528/modeler/tools/node/node_modules/@react-native-community/geolocation",
      "@react-native-community/masked-view": "D:/Program Files/Mendix/8.18.1.13528/modeler/tools/node/node_modules/@react-native-community/masked-view",
      "@react-native-community/netinfo": "D:/Program Files/Mendix/8.18.1.13528/modeler/tools/node/node_modules/@react-native-community/netinfo",
      "eventemitter3": "D:/Program Files/Mendix/8.18.1.13528/modeler/tools/node/node_modules/eventemitter3",
      "mendix": "D:/Program Files/Mendix/8.18.1.13528/modeler/tools/node/node_modules/mendix"
    }
  },
  "cacheVersion": "13528"
}