Picked up JAVA_TOOL_OPTIONS: -Djava.vendor="Sun Microsystems Inc." 
Picked up _JAVA_OPTIONS: -Xmx768M -Dfile.encoding=UTF8
Buildfile: d:\Users\ctachape\Documents\Mendix\MakroQuestionarie-Notification_Line\deployment\build_core.xml

deploy:
     [copy] Copying 32 files to d:\Users\ctachape\Documents\Mendix\MakroQuestionarie-Notification_Line\deployment
     [copy] Copying 74 files to d:\Users\ctachape\Documents\Mendix\MakroQuestionarie-Notification_Line\deployment\model\lib\userlib
     [copy] Copying 3 files to d:\Users\ctachape\Documents\Mendix\MakroQuestionarie-Notification_Line\deployment\model\resources

BUILD SUCCESSFUL
Total time: 3 seconds


